<?xml version="1.0" standalone="no"?>
<!DOCTYPE svg PUBLIC "-//W3C//DTD SVG 1.1//EN" "http://www.w3.org/Graphics/SVG/1.1/DTD/svg11.dtd">
<svg xmlns="http://www.w3.org/2000/svg">
<metadata>Generated by Fontastic.me</metadata>
<defs>
<font id="untitled-font-3" horiz-adv-x="512">
<font-face font-family="untitled-font-3" units-per-em="512" ascent="480" descent="-32"/>
<missing-glyph horiz-adv-x="512" />

<glyph glyph-name="ballot" unicode="&#97;" d="M256 0c-75 0-150 0-225 0-21 0-31 10-31 31 0 81 0 163 0 244 1 22 5 43 7 65 4 34 9 69 13 104 2 15 4 30 6 46 2 14 13 22 28 22 38 0 77 0 115 0 95 0 191 0 287 0 19 0 28-8 30-28 8-59 16-119 23-179 2-24 3-49 3-74 0-67 0-133 0-199 0-22-10-32-31-32-75 0-150 0-225 0z m-204 52c136 0 272 0 408 0 0 68 0 136 0 204-136 0-272 0-408 0 0-68 0-136 0-204z m386 408c-122 0-242 0-364 0-6-51-12-101-19-152 135 0 268 0 402 0-7 51-13 102-19 152z m-258-101c0 16 0 33 0 50 50 0 101 0 152 0 0-17 0-33 0-50-50 0-101 0-152 0z"/>
</font></defs></svg>
